<svg version="1.1" xmlns="http://www.w3.org/2000/svg" xmlns:xlink="http://www.w3.org/1999/xlink" x="0px" y="0px" viewBox="0 0 64 64">

    <symbol id="icon_jewel" viewBox="0 0 31 29">
        <path fill-rule="evenodd" d="M30.881,9.473 L25.932,0.489 C25.766,0.187 25.452,-0.000 25.110,-0.000 L5.890,-0.000 C5.549,-0.000 5.234,0.187 5.068,0.489 L0.119,9.473 C-0.069,9.814 -0.032,10.237 0.211,10.540 L14.771,28.648 C14.776,28.654 14.781,28.659 14.786,28.665 C14.801,28.683 14.817,28.700 14.833,28.717 C14.835,28.719 14.836,28.721 14.838,28.723 C14.843,28.727 14.847,28.731 14.851,28.735 C14.853,28.737 14.855,28.738 14.856,28.740 C14.873,28.755 14.890,28.771 14.908,28.785 C14.916,28.792 14.924,28.799 14.933,28.805 C14.951,28.819 14.970,28.833 14.989,28.845 C14.998,28.851 15.007,28.857 15.016,28.863 C15.032,28.873 15.049,28.882 15.066,28.891 C15.073,28.894 15.079,28.898 15.086,28.902 C15.093,28.905 15.099,28.908 15.105,28.911 C15.124,28.920 15.144,28.927 15.163,28.935 C15.175,28.940 15.187,28.945 15.200,28.949 C15.202,28.950 15.204,28.951 15.206,28.952 C15.207,28.952 15.208,28.952 15.209,28.953 C15.217,28.955 15.226,28.957 15.235,28.959 C15.267,28.969 15.299,28.977 15.331,28.983 C15.345,28.985 15.358,28.988 15.372,28.990 C15.411,28.995 15.450,28.999 15.490,28.999 C15.493,28.999 15.497,29.000 15.501,29.000 L15.501,29.000 L15.501,29.000 C15.505,29.000 15.508,28.999 15.512,28.999 C15.552,28.999 15.591,28.995 15.630,28.990 C15.643,28.988 15.657,28.985 15.670,28.983 C15.703,28.977 15.736,28.969 15.768,28.959 C15.776,28.957 15.784,28.955 15.792,28.953 C15.794,28.952 15.795,28.952 15.795,28.952 C15.798,28.951 15.800,28.950 15.802,28.949 C15.815,28.945 15.826,28.940 15.838,28.935 C15.858,28.928 15.877,28.920 15.896,28.911 C15.903,28.908 15.909,28.905 15.916,28.902 C15.922,28.898 15.929,28.895 15.935,28.891 C15.952,28.882 15.969,28.873 15.986,28.863 C15.995,28.857 16.004,28.851 16.013,28.845 C16.032,28.833 16.051,28.820 16.069,28.806 C16.077,28.799 16.086,28.793 16.094,28.786 C16.112,28.771 16.129,28.755 16.146,28.740 C16.147,28.738 16.149,28.737 16.151,28.735 C16.155,28.731 16.159,28.728 16.162,28.724 C16.165,28.722 16.166,28.720 16.169,28.717 C16.185,28.700 16.201,28.682 16.217,28.664 C16.221,28.659 16.226,28.654 16.230,28.649 L30.788,10.540 C31.032,10.237 31.069,9.814 30.881,9.473 ZM17.358,1.907 L20.024,8.984 L10.977,8.984 L13.644,1.907 L17.358,1.907 ZM20.090,10.891 L15.501,24.999 L10.911,10.891 L20.090,10.891 ZM8.929,10.891 L13.011,23.440 L2.922,10.891 L8.929,10.891 ZM22.072,10.891 L28.078,10.891 L17.991,23.439 L22.072,10.891 ZM28.455,8.984 L22.039,8.984 L19.373,1.907 L24.558,1.907 L28.455,8.984 ZM6.443,1.907 L11.629,1.907 L8.962,8.984 L2.545,8.984 L6.443,1.907 Z"/>
   </symbol>


    <symbol id="icon_" viewBox="0 0 333.84 410">

    </symbol>

</svg>